IGRA+ decay sample size calculation
…
Where p0 is the assumed initial proportion of IGRA+, p1 is the assumed proportion of IGRA+ t years later initial time, t_entry is a vector of sampling times (i.e. dates of entry in the country) and t_exposure is a vector of the time before entry at which exposure happened. Note that:

both t_entry and t_exposure are vectors of random values

the number of samples corresponds to the length of t_entry

the length of t_exposure is either equal to 1 or the number of samples

An example with 500 samples showing what the simulations look like:

simulator(.3, .1, 10, runif(500, max = 10))

# A tibble: 500 × 2
    time  igra
   <dbl> <int>
 1 2.20      0
 2 4.39      1
 3 6.78      1
 4 0.146     0
 5 2.24      0
 6 8.66      0
 7 6.11      0
 8 1.34      1
 9 8.30      0
10 9.78      0
# ℹ 490 more rows
…
